<svg viewBox="0 0 24 24" fill="none" xmlns="http://www.w3.org/2000/svg">
<path d="M12 13.8H17.0922C16.7186 14.8521 16.0286 15.7629 15.1169 16.4074C14.2052 17.0519 13.1165 17.3986 12 17.4C9.0228 17.4 6.6 14.9772 6.6 12C6.6 9.0228 9.0228 6.6 12 6.6C13.2906 6.6 14.5326 7.0626 15.4974 7.9032L17.8626 5.1888C16.2369 3.77508 14.1544 2.99759 12 3.00001C7.0374 3.00001 3 7.03741 3 12C3 16.9626 7.0374 21 12 21C16.9626 21 21 16.9626 21 12V10.2H12V13.8Z" fill="black"/>
</svg>
